{
	"compiler": {
		"version": "0.8.7+commit.e28d00a7"
	},
	"language": "Solidity",
	"output": {
		"abi": [
			{
				"inputs": [
					{
						"internalType": "address",
						"name": "_proxyRegistryAddress",
						"type": "address"
					}
				],
				"stateMutability": "nonpayable",
				"type": "constructor"
			},
			{
				"anonymous": false,
				"inputs": [
					{
						"indexed": true,
						"internalType": "address",
						"name": "owner",
						"type": "address"
					},
					{
						"indexed": true,
						"internalType": "address",
						"name": "approved",
						"type": "address"
					},
					{
						"indexed": true,
						"internalType": "uint256",
						"name": "tokenId",
						"type": "uint256"
					}
				],
				"name": "Approval",
				"type": "event"
			},
			{
				"anonymous": false,
				"inputs": [
					{
						"indexed": true,
						"internalType": "address",
						"name": "owner",
						"type": "address"
					},
					{
						"indexed": true,
						"internalType": "address",
						"name": "operator",
						"type": "address"
					},
					{
						"indexed": false,
						"internalType": "bool",
						"name": "approved",
						"type": "bool"
					}
				],
				"name": "ApprovalForAll",
				"type": "event"
			},
			{
				"anonymous": false,
				"inputs": [
					{
						"indexed": false,
						"internalType": "address",
						"name": "userAddress",
						"type": "address"
					},
					{
						"indexed": false,
						"internalType": "address payable",
						"name": "relayerAddress",
						"type": "address"
					},
					{
						"indexed": false,
						"internalType": "bytes",
						"name": "functionSignature",
						"type": "bytes"
					}
				],
				"name": "MetaTransactionExecuted",
				"type": "event"
			},
			{
				"anonymous": false,
				"inputs": [
					{
						"indexed": true,
						"internalType": "address",
						"name": "previousOwner",
						"type": "address"
					},
					{
						"indexed": true,
						"internalType": "address",
						"name": "newOwner",
						"type": "address"
					}
				],
				"name": "OwnershipTransferred",
				"type": "event"
			},
			{
				"anonymous": false,
				"inputs": [
					{
						"indexed": true,
						"internalType": "address",
						"name": "from",
						"type": "address"
					},
					{
						"indexed": true,
						"internalType": "address",
						"name": "to",
						"type": "address"
					},
					{
						"indexed": true,
						"internalType": "uint256",
						"name": "tokenId",
						"type": "uint256"
					}
				],
				"name": "Transfer",
				"type": "event"
			},
			{
				"inputs": [],
				"name": "ERC712_VERSION",
				"outputs": [
					{
						"internalType": "string",
						"name": "",
						"type": "string"
					}
				],
				"stateMutability": "view",
				"type": "function"
			},
			{
				"inputs": [
					{
						"internalType": "address",
						"name": "to",
						"type": "address"
					},
					{
						"internalType": "uint256",
						"name": "tokenId",
						"type": "uint256"
					}
				],
				"name": "approve",
				"outputs": [],
				"stateMutability": "nonpayable",
				"type": "function"
			},
			{
				"inputs": [
					{
						"internalType": "address",
						"name": "owner",
						"type": "address"
					}
				],
				"name": "balanceOf",
				"outputs": [
					{
						"internalType": "uint256",
						"name": "",
						"type": "uint256"
					}
				],
				"stateMutability": "view",
				"type": "function"
			},
			{
				"inputs": [],
				"name": "baseTokenURI",
				"outputs": [
					{
						"internalType": "string",
						"name": "",
						"type": "string"
					}
				],
				"stateMutability": "pure",
				"type": "function"
			},
			{
				"inputs": [],
				"name": "contractURI",
				"outputs": [
					{
						"internalType": "string",
						"name": "",
						"type": "string"
					}
				],
				"stateMutability": "pure",
				"type": "function"
			},
			{
				"inputs": [
					{
						"internalType": "address",
						"name": "userAddress",
						"type": "address"
					},
					{
						"internalType": "bytes",
						"name": "functionSignature",
						"type": "bytes"
					},
					{
						"internalType": "bytes32",
						"name": "sigR",
						"type": "bytes32"
					},
					{
						"internalType": "bytes32",
						"name": "sigS",
						"type": "bytes32"
					},
					{
						"internalType": "uint8",
						"name": "sigV",
						"type": "uint8"
					}
				],
				"name": "executeMetaTransaction",
				"outputs": [
					{
						"internalType": "bytes",
						"name": "",
						"type": "bytes"
					}
				],
				"stateMutability": "payable",
				"type": "function"
			},
			{
				"inputs": [
					{
						"internalType": "uint256",
						"name": "tokenId",
						"type": "uint256"
					}
				],
				"name": "getApproved",
				"outputs": [
					{
						"internalType": "address",
						"name": "",
						"type": "address"
					}
				],
				"stateMutability": "view",
				"type": "function"
			},
			{
				"inputs": [],
				"name": "getChainId",
				"outputs": [
					{
						"internalType": "uint256",
						"name": "",
						"type": "uint256"
					}
				],
				"stateMutability": "view",
				"type": "function"
			},
			{
				"inputs": [],
				"name": "getDomainSeperator",
				"outputs": [
					{
						"internalType": "bytes32",
						"name": "",
						"type": "bytes32"
					}
				],
				"stateMutability": "view",
				"type": "function"
			},
			{
				"inputs": [
					{
						"internalType": "address",
						"name": "user",
						"type": "address"
					}
				],
				"name": "getNonce",
				"outputs": [
					{
						"internalType": "uint256",
						"name": "nonce",
						"type": "uint256"
					}
				],
				"stateMutability": "view",
				"type": "function"
			},
			{
				"inputs": [
					{
						"internalType": "address",
						"name": "owner",
						"type": "address"
					},
					{
						"internalType": "address",
						"name": "operator",
						"type": "address"
					}
				],
				"name": "isApprovedForAll",
				"outputs": [
					{
						"internalType": "bool",
						"name": "",
						"type": "bool"
					}
				],
				"stateMutability": "view",
				"type": "function"
			},
			{
				"inputs": [
					{
						"internalType": "address",
						"name": "_to",
						"type": "address"
					}
				],
				"name": "mintTo",
				"outputs": [],
				"stateMutability": "nonpayable",
				"type": "function"
			},
			{
				"inputs": [],
				"name": "name",
				"outputs": [
					{
						"internalType": "string",
						"name": "",
						"type": "string"
					}
				],
				"stateMutability": "view",
				"type": "function"
			},
			{
				"inputs": [],
				"name": "owner",
				"outputs": [
					{
						"internalType": "address",
						"name": "",
						"type": "address"
					}
				],
				"stateMutability": "view",
				"type": "function"
			},
			{
				"inputs": [
					{
						"internalType": "uint256",
						"name": "tokenId",
						"type": "uint256"
					}
				],
				"name": "ownerOf",
				"outputs": [
					{
						"internalType": "address",
						"name": "",
						"type": "address"
					}
				],
				"stateMutability": "view",
				"type": "function"
			},
			{
				"inputs": [],
				"name": "renounceOwnership",
				"outputs": [],
				"stateMutability": "nonpayable",
				"type": "function"
			},
			{
				"inputs": [
					{
						"internalType": "address",
						"name": "from",
						"type": "address"
					},
					{
						"internalType": "address",
						"name": "to",
						"type": "address"
					},
					{
						"internalType": "uint256",
						"name": "tokenId",
						"type": "uint256"
					}
				],
				"name": "safeTransferFrom",
				"outputs": [],
				"stateMutability": "nonpayable",
				"type": "function"
			},
			{
				"inputs": [
					{
						"internalType": "address",
						"name": "from",
						"type": "address"
					},
					{
						"internalType": "address",
						"name": "to",
						"type": "address"
					},
					{
						"internalType": "uint256",
						"name": "tokenId",
						"type": "uint256"
					},
					{
						"internalType": "bytes",
						"name": "_data",
						"type": "bytes"
					}
				],
				"name": "safeTransferFrom",
				"outputs": [],
				"stateMutability": "nonpayable",
				"type": "function"
			},
			{
				"inputs": [
					{
						"internalType": "address",
						"name": "operator",
						"type": "address"
					},
					{
						"internalType": "bool",
						"name": "approved",
						"type": "bool"
					}
				],
				"name": "setApprovalForAll",
				"outputs": [],
				"stateMutability": "nonpayable",
				"type": "function"
			},
			{
				"inputs": [
					{
						"internalType": "bytes4",
						"name": "interfaceId",
						"type": "bytes4"
					}
				],
				"name": "supportsInterface",
				"outputs": [
					{
						"internalType": "bool",
						"name": "",
						"type": "bool"
					}
				],
				"stateMutability": "view",
				"type": "function"
			},
			{
				"inputs": [],
				"name": "symbol",
				"outputs": [
					{
						"internalType": "string",
						"name": "",
						"type": "string"
					}
				],
				"stateMutability": "view",
				"type": "function"
			},
			{
				"inputs": [
					{
						"internalType": "uint256",
						"name": "_tokenId",
						"type": "uint256"
					}
				],
				"name": "tokenURI",
				"outputs": [
					{
						"internalType": "string",
						"name": "",
						"type": "string"
					}
				],
				"stateMutability": "pure",
				"type": "function"
			},
			{
				"inputs": [],
				"name": "totalSupply",
				"outputs": [
					{
						"internalType": "uint256",
						"name": "",
						"type": "uint256"
					}
				],
				"stateMutability": "view",
				"type": "function"
			},
			{
				"inputs": [
					{
						"internalType": "address",
						"name": "from",
						"type": "address"
					},
					{
						"internalType": "address",
						"name": "to",
						"type": "address"
					},
					{
						"internalType": "uint256",
						"name": "tokenId",
						"type": "uint256"
					}
				],
				"name": "transferFrom",
				"outputs": [],
				"stateMutability": "nonpayable",
				"type": "function"
			},
			{
				"inputs": [
					{
						"internalType": "address",
						"name": "newOwner",
						"type": "address"
					}
				],
				"name": "transferOwnership",
				"outputs": [],
				"stateMutability": "nonpayable",
				"type": "function"
			}
		],
		"devdoc": {
			"kind": "dev",
			"methods": {
				"approve(address,uint256)": {
					"details": "See {IERC721-approve}."
				},
				"balanceOf(address)": {
					"details": "See {IERC721-balanceOf}."
				},
				"getApproved(uint256)": {
					"details": "See {IERC721-getApproved}."
				},
				"mintTo(address)": {
					"details": "Mints a token to an address with a tokenURI.",
					"params": {
						"_to": "address of the future owner of the token"
					}
				},
				"name()": {
					"details": "See {IERC721Metadata-name}."
				},
				"owner()": {
					"details": "Returns the address of the current owner."
				},
				"ownerOf(uint256)": {
					"details": "See {IERC721-ownerOf}."
				},
				"renounceOwnership()": {
					"details": "Leaves the contract without owner. It will not be possible to call `onlyOwner` functions anymore. Can only be called by the current owner. NOTE: Renouncing ownership will leave the contract without an owner, thereby removing any functionality that is only available to the owner."
				},
				"safeTransferFrom(address,address,uint256)": {
					"details": "See {IERC721-safeTransferFrom}."
				},
				"safeTransferFrom(address,address,uint256,bytes)": {
					"details": "See {IERC721-safeTransferFrom}."
				},
				"setApprovalForAll(address,bool)": {
					"details": "See {IERC721-setApprovalForAll}."
				},
				"supportsInterface(bytes4)": {
					"details": "See {IERC165-supportsInterface}."
				},
				"symbol()": {
					"details": "See {IERC721Metadata-symbol}."
				},
				"totalSupply()": {
					"details": "Returns the total tokens minted so far. 1 is always subtracted from the Counter since it tracks the next available tokenId."
				},
				"transferFrom(address,address,uint256)": {
					"details": "See {IERC721-transferFrom}."
				},
				"transferOwnership(address)": {
					"details": "Transfers ownership of the contract to a new account (`newOwner`). Can only be called by the current owner."
				}
			},
			"title": "MIRS MIRS - a contract for my non-fungible MIRS.",
			"version": 1
		},
		"userdoc": {
			"kind": "user",
			"methods": {
				"isApprovedForAll(address,address)": {
					"notice": "Override isApprovedForAll to whitelist user's OpenSea proxy accounts to enable gas-less listings."
				}
			},
			"version": 1
		}
	},
	"settings": {
		"compilationTarget": {
			"contracts/MIRS.sol": "MIRS"
		},
		"evmVersion": "london",
		"libraries": {},
		"metadata": {
			"bytecodeHash": "ipfs"
		},
		"optimizer": {
			"enabled": false,
			"runs": 200
		},
		"remappings": []
	},
	"sources": {
		"@openzeppelin/contracts/access/Ownable.sol": {
			"keccak256": "0x24e0364e503a9bbde94c715d26573a76f14cd2a202d45f96f52134ab806b67b9",
			"license": "MIT",
			"urls": [
				"bzz-raw://e12cbaa7378fd9b62280e4e1d164bedcb4399ce238f5f98fc0eefb7e50577981",
				"dweb:/ipfs/QmXRoFGUgfsaRkoPT5bxNMtSayKTQ8GZATLPXf69HcRA51"
			]
		},
		"@openzeppelin/contracts/token/ERC721/ERC721.sol": {
			"keccak256": "0x81c02855bc239e16ec09eee000a8bec691424c715188d6d881037e69c45414c4",
			"license": "MIT",
			"urls": [
				"bzz-raw://46e3ecc8920aeb78c362a387520fe28e022cdc6d04256d9e5874eb8ff6868b6d",
				"dweb:/ipfs/QmdfCTHrV6CZMGiM3KqGF8tWkdNvGpEmWFyy72X1LAHsz2"
			]
		},
		"@openzeppelin/contracts/token/ERC721/IERC721.sol": {
			"keccak256": "0x516a22876c1fab47f49b1bc22b4614491cd05338af8bd2e7b382da090a079990",
			"license": "MIT",
			"urls": [
				"bzz-raw://a439187f7126d31add4557f82d8aed6be0162007cd7182c48fd934dbab8f3849",
				"dweb:/ipfs/QmRPLguRFvrRJS7r6F1bcLvsx6q1VrgjEpZafyeL8D7xZh"
			]
		},
		"@openzeppelin/contracts/token/ERC721/IERC721Receiver.sol": {
			"keccak256": "0xd5fa74b4fb323776fa4a8158800fec9d5ac0fec0d6dd046dd93798632ada265f",
			"license": "MIT",
			"urls": [
				"bzz-raw://33017a30a99cc5411a9e376622c31fc4a55cfc6a335e2f57f00cbf24a817ff3f",
				"dweb:/ipfs/QmWNQtWTPhA7Lo8nbxbc8KFMvZwbFYB8fSeEQ3vuapSV4a"
			]
		},
		"@openzeppelin/contracts/token/ERC721/extensions/IERC721Metadata.sol": {
			"keccak256": "0x75b829ff2f26c14355d1cba20e16fe7b29ca58eb5fef665ede48bc0f9c6c74b9",
			"license": "MIT",
			"urls": [
				"bzz-raw://a0a107160525724f9e1bbbab031defc2f298296dd9e331f16a6f7130cec32146",
				"dweb:/ipfs/QmemujxSd7gX8A9M8UwmNbz4Ms3U9FG9QfudUgxwvTmPWf"
			]
		},
		"@openzeppelin/contracts/utils/Address.sol": {
			"keccak256": "0x51b758a8815ecc9596c66c37d56b1d33883a444631a3f916b9fe65cb863ef7c4",
			"license": "MIT",
			"urls": [
				"bzz-raw://997ca03557985b3c6f9143a18b6c3a710b3bc1c7f189ee956d305a966ecfb922",
				"dweb:/ipfs/QmQaD3Wb62F88SHqmpLttvF6wKuPDQep2LLUcKPekeRzvz"
			]
		},
		"@openzeppelin/contracts/utils/Context.sol": {
			"keccak256": "0xe2e337e6dde9ef6b680e07338c493ebea1b5fd09b43424112868e9cc1706bca7",
			"license": "MIT",
			"urls": [
				"bzz-raw://6df0ddf21ce9f58271bdfaa85cde98b200ef242a05a3f85c2bc10a8294800a92",
				"dweb:/ipfs/QmRK2Y5Yc6BK7tGKkgsgn3aJEQGi5aakeSPZvS65PV8Xp3"
			]
		},
		"@openzeppelin/contracts/utils/Counters.sol": {
			"keccak256": "0xf0018c2440fbe238dd3a8732fa8e17a0f9dce84d31451dc8a32f6d62b349c9f1",
			"license": "MIT",
			"urls": [
				"bzz-raw://59e1c62884d55b70f3ae5432b44bb3166ad71ae3acd19c57ab6ddc3c87c325ee",
				"dweb:/ipfs/QmezuXg5GK5oeA4F91EZhozBFekhq5TD966bHPH18cCqhu"
			]
		},
		"@openzeppelin/contracts/utils/Strings.sol": {
			"keccak256": "0x32c202bd28995dd20c4347b7c6467a6d3241c74c8ad3edcbb610cd9205916c45",
			"license": "MIT",
			"urls": [
				"bzz-raw://8179c356adb19e70d6b31a1eedc8c5c7f0c00e669e2540f4099e3844c6074d30",
				"dweb:/ipfs/QmWFbivarEobbqhS1go64ootVuHfVohBseerYy9FTEd1W2"
			]
		},
		"@openzeppelin/contracts/utils/introspection/ERC165.sol": {
			"keccak256": "0xd10975de010d89fd1c78dc5e8a9a7e7f496198085c151648f20cba166b32582b",
			"license": "MIT",
			"urls": [
				"bzz-raw://fb0048dee081f6fffa5f74afc3fb328483c2a30504e94a0ddd2a5114d731ec4d",
				"dweb:/ipfs/QmZptt1nmYoA5SgjwnSgWqgUSDgm4q52Yos3xhnMv3MV43"
			]
		},
		"@openzeppelin/contracts/utils/introspection/IERC165.sol": {
			"keccak256": "0x447a5f3ddc18419d41ff92b3773fb86471b1db25773e07f877f548918a185bf1",
			"license": "MIT",
			"urls": [
				"bzz-raw://be161e54f24e5c6fae81a12db1a8ae87bc5ae1b0ddc805d82a1440a68455088f",
				"dweb:/ipfs/QmP7C3CHdY9urF4dEMb9wmsp1wMxHF6nhA2yQE5SKiPAdy"
			]
		},
		"@openzeppelin/contracts/utils/math/SafeMath.sol": {
			"keccak256": "0xa2f576be637946f767aa56601c26d717f48a0aff44f82e46f13807eea1009a21",
			"license": "MIT",
			"urls": [
				"bzz-raw://973868f808e88e21a1a0a01d4839314515ee337ad096286c88e41b74dcc11fc2",
				"dweb:/ipfs/QmfYuZxRfx2J2xdk4EXN7jKg4bUYEMTaYk9BAw9Bqn4o2Y"
			]
		},
		"contracts/ERC721Tradable.sol": {
			"keccak256": "0x3a7bdecd005cafcdd271c82c82775bd7017c5647fb5b3858189d6195beba3de9",
			"license": "MIT",
			"urls": [
				"bzz-raw://850ce6c8c69e7fa0864fb21fdb5ad83cc9790a6ecbc988da8130446c7b86e9f4",
				"dweb:/ipfs/QmdVrTyG953ddt71wMgtRDFfqSvaqXPu8qtXVZtTGBLsmK"
			]
		},
		"contracts/MIRS.sol": {
			"keccak256": "0x8cf3445f3181ffc8b5a6d5d1e736ebe1dc9e4a4fe6ec64996605e663df0fbb92",
			"license": "MIT",
			"urls": [
				"bzz-raw://11e509f03c0f6339c5dffc36b80946f7c8bdb409c305e895ba1c6b11398d19db",
				"dweb:/ipfs/QmV4MjCk1SHzjnYGZKe33wLs3SSwwMLtq2GQA3iFExuecr"
			]
		},
		"contracts/common/meta-transactions/ContentMixin.sol": {
			"keccak256": "0x92409bc8d2c1be83e14de02f07d791230699dee7abb70f3b7eff2425b8cc929c",
			"license": "MIT",
			"urls": [
				"bzz-raw://1dd37a1a5b74c26cbe341ae45e688afad30e86d4edfc20d296c59390f22d67b5",
				"dweb:/ipfs/QmWkQotAas3H2Z7e5Y4bL33Paa5t4fwcNMLLM67EowZQtZ"
			]
		},
		"contracts/common/meta-transactions/EIP712Base.sol": {
			"keccak256": "0x40e64dca9e20cd12e88efe58a2bc2f41051325dd4896b5454bad6cfe53a969ac",
			"license": "MIT",
			"urls": [
				"bzz-raw://9979a678076f6937bcf732d916b0282e5e2d3cb7b1a3322a012a63f6f69aad99",
				"dweb:/ipfs/QmchJfxLDHWtBgb2YfMBWgniCiHivat96kDi3qQikvJEMQ"
			]
		},
		"contracts/common/meta-transactions/Initializable.sol": {
			"keccak256": "0x397d4aa8cc6e019c7ed4e32e92db0935d6fdede224d5c6ae09136309eef15cde",
			"license": "MIT",
			"urls": [
				"bzz-raw://13460611492b8292c442cfdb24c27fa255a1a3acbf98430f3b2eb61a92c46c9f",
				"dweb:/ipfs/QmVK8kB1jkfgAM2fYXeRywBo5SV8uSpttQ3nLNMrdygmxn"
			]
		},
		"contracts/common/meta-transactions/NativeMetaTransaction.sol": {
			"keccak256": "0x3cd9f941ba4d057738d8ba5798c5a57ea2893ebb778fea50bb9e282b2d3315f0",
			"license": "MIT",
			"urls": [
				"bzz-raw://77592d2882edc0e5e99344e7c521b9eda883e6f0578061bebbae4777be9fbdf8",
				"dweb:/ipfs/QmXtbiaBqoitNW63EQbiwkHQEJ8geJjR7wu1QJWhRUYKeT"
			]
		}
	},
	"version": 1
}